<?xml version="1.0"?>
<robot name="evg55_gripper" xmlns:xacro="http://ros.org/wiki/xacro">
  
  <!-- arguments -->
  <xacro:arg name="prefix" default=""/>
  <xacro:arg name="ns" default=""/>
  <xacro:arg name="hw_interface" default="hardware_interface/PositionJointInterface"/>
  
  <!-- parameters -->
  <xacro:property name="prefix" value="$(arg prefix)"/>
  <xacro:property name="ns" value="$(arg ns)"/>
  <xacro:property name="hw_interface" value="$(arg hw_interface)"/>
  
  <xacro:include filename="$(find kair_evg55)/urdf/evg55.urdf.xacro"/>
  
  <xacro:evg55 prefix="${prefix}" ns="${ns}" ros_control="true" hw_interface="${hw_interface}"/>

  <link name="world">
  </link>

  <joint name="${prefix}world_joint" type="fixed">
    <parent link="world" />
    <child link="${prefix}evg55_base_link"/>
    <origin xyz="0.0 0.0 0.0" rpy="0.0 0.0 0.0"/>
  </joint>
  
</robot>
