<?xml version="1.0"?>
<robot name="evg55" xmlns:xacro="http://ros.org/wiki/xacro">
  
  <xacro:macro name="evg55" params="prefix tcp_offset:=0.05 ros_control:=true ns:=/ hw_interface:=hardware_interface/PositionJointInterface">
    
    <link name="${prefix}evg55_base_link">
      <visual>
        <origin xyz="0 0 0" rpy="0 0 0"/>
        <geometry>
          <mesh filename="package://kair_evg55/meshes/evg55_base_link.dae"/>
        </geometry>
      </visual>
      <collision>
        <origin xyz="0 0 0" rpy="0 0 0"/>
        <geometry>
          <mesh filename="package://kair_evg55/meshes/evg55_base_link.dae"/>
        </geometry>
      </collision>
      <inertial>
        <origin xyz="0 0 0.0446" rpy="0 0 0"/>
        <mass value="1.1"/>
        <inertia ixx="0.000001" ixy="0" ixz="0" iyy="0.000001" iyz="0" izz="0.000001"/>
      </inertial>
    </link>
    
    <joint name="${prefix}evg55_left_finger_joint" type="prismatic">
      <parent link="${prefix}evg55_base_link"/>
      <child link="${prefix}evg55_left_finger_link"/>
      <origin xyz="0 0 0.0892" rpy="0 ${-pi/2} 0"/>
      <axis xyz="0 0 1"/>
      <limit lower="0" upper="0.05" velocity="0.4" effort="57"/>
    </joint>
    
    <link name="${prefix}evg55_left_finger_link">
      <visual>
        <origin xyz="0 0 0" rpy="0 0 0"/>
        <geometry>
          <mesh filename="package://kair_evg55/meshes/evg55_sample_finger.dae"/>
        </geometry>
      </visual>
      <collision>
        <origin xyz="0 0 0" rpy="0 0 0"/>
        <geometry>
          <mesh filename="package://kair_evg55/meshes/evg55_sample_finger.dae"/>
        </geometry>
      </collision>
      <inertial>
        <origin xyz="0 0 0" rpy="0 0 0"/>
        <mass value="0.1"/>
        <inertia ixx="0.000001" ixy="0" ixz="0" iyy="0.000001" iyz="0" izz="0.000001"/>
      </inertial>
    </link>
    
    <joint name="${prefix}evg55_right_finger_joint" type="prismatic">
      <parent link="${prefix}evg55_base_link"/>
      <child link="${prefix}evg55_right_finger_link"/>
      <origin xyz="0 0 0.0892" rpy="${pi} ${-pi/2} 0"/>
      <axis xyz="0 0 1"/>
      <limit lower="0" upper="0.05" velocity="0.4" effort="57"/>
    </joint>
    
    <link name="${prefix}evg55_right_finger_link">
      <visual>
        <origin xyz="0 0 0" rpy="0 0 0"/>
        <geometry>
          <mesh filename="package://kair_evg55/meshes/evg55_sample_finger.dae"/>
        </geometry>
      </visual>
      <collision>
        <origin xyz="0 0 0" rpy="0 0 0"/>
        <geometry>
          <mesh filename="package://kair_evg55/meshes/evg55_sample_finger.dae"/>
        </geometry>
      </collision>
      <inertial>
        <origin xyz="0 0 0" rpy="0 0 0"/>
        <mass value="0.1"/>
        <inertia ixx="0.000001" ixy="0" ixz="0" iyy="0.000001" iyz="0" izz="0.000001"/>
      </inertial>
    </link>
    
    <joint name="${prefix}evg55_tcp_joint" type="fixed">
      <parent link="${prefix}evg55_base_link"/>
      <child link="${prefix}evg55_tcp"/>
      <origin xyz="0 0 ${0.892+tcp_offset}" rpy="0 0 0"/>
    </joint>
    
    <link name="${prefix}evg55_tcp"/>
    
    <transmission name="${prefix}evg55_left_finger_trans">
      <type>transmission_interface/SimpleTransmission</type>
      <joint name="${prefix}evg55_left_finger_joint">
        <hardwareInterface>${hw_interface}</hardwareInterface>
      </joint>
      <actuator name="${prefix}evg55_left_finger_motor">
        <mechanicalReduction>1</mechanicalReduction>
      </actuator>
    </transmission>
    
    <transmission name="${prefix}evg55_right_finger_trans">
      <type>transmission_interface/SimpleTransmission</type>
      <joint name="${prefix}evg55_right_finger_joint">
        <hardwareInterface>${hw_interface}</hardwareInterface>
      </joint>
      <actuator name="${prefix}evg55_right_finger_motor">
        <mechanicalReduction>1</mechanicalReduction>
      </actuator>
    </transmission>
    
    <xacro:if value="${ros_control}">
      <gazebo>
        <plugin name="${prefix}evg55_ros_control" filename="libgazebo_ros_control.so">
          <legacyModeNS>true</legacyModeNS>
          <robotNamespace>${ns}</robotNamespace>
          <robotParam>${ns}/robot_description</robotParam>
        </plugin>
      </gazebo>
    </xacro:if>
    
  </xacro:macro>
  
</robot>
